[
  {
    time: 0
    circleConfigs: [
      {
        index: 0
        velocity: 100
        angle: 20
        areaAngle: 40
        areaVelocity: -20
        areaRotation: 0
        startRotation: 0
      },
      {
        index: 2
        velocity: 150
        angle: 20
        areaAngle: 40
        areaVelocity: 30
        areaRotation: 0
        startRotation: 0
      },
      {
        index: 1
        velocity: 60
        angle: 80
        areaAngle: 90
        areaVelocity: 0
        areaRotation: 50
        startRotation: 0
      },
      {
        index: 5
        velocity: 120
        angle: 120
        areaAngle: 140
        areaVelocity: 0
        areaRotation: 200
        startRotation: 0
      }
    ]
  },
  {
    time: 20
    circleConfigs: [
      {
        index: 0
        velocity: -20
        angle: 30
        areaAngle: 60
        areaVelocity: 0
        areaRotation: 20
        startRotation: 0
      },
      {
        index: 1
        velocity: 30
        angle: 60
        areaAngle: 90
        areaVelocity: 0
        areaRotation: 180
        startRotation: 0
      },
    ]
  },
  {
    time: 0
    circleConfigs: [
      {
        index: 0
        velocity: 100
        angle: 20
        areaAngle: 40
        areaVelocity: -20
        areaRotation: 0
        startRotation: 0
      },
      {
        index: 2
        velocity: 150
        angle: 20
        areaAngle: 40
        areaVelocity: 30
        areaRotation: 0
        startRotation: 0
      },
      {
        index: 1
        velocity: 60
        angle: 80
        areaAngle: 90
        areaVelocity: 0
        areaRotation: 50
        startRotation: 0
      }
    ]
  },
  {
    time: 0
    circleConfigs: [
      {
        index: 0
        velocity: 100
        angle: 20
        areaAngle: 40
        areaVelocity: -20
        areaRotation: 0
        startRotation: 0
      },
      {
        index: 2
        velocity: 150
        angle: 20
        areaAngle: 40
        areaVelocity: 30
        areaRotation: 0
        startRotation: 0
      },
      {
        index: 1
        velocity: 60
        angle: 80
        areaAngle: 90
        areaVelocity: 0
        areaRotation: 50
        startRotation: 0
      },
      {
        index: 3
        velocity: 30
        angle: 120
        areaAngle: 140
        areaVelocity: 0
        areaRotation: 200
        startRotation: 0
      },
      {
        index:4
        velocity:60
        angle:80
        areaAngle:90
        areaVelocity:0
        areaRotation:50
        startRotation:0
      },
      {
        index:5
        velocity:90
        angle:50
        areaAngle:90
        areaVelocity:0
        areaRotation:-50
        startRotation:0
      }
    ]
  }
]